,,,"Start","Destination","GPX of Start",,"Bergauf","Bergab","wichtiger Ort","Unterkunft","Owner","Guide","Vertreter","Feinplanung (gerne selbst eintragen um die Feinplanung für einen Tour Abschnitt zu übernehmen)"
"Point on map","date",,"from","to",,"Distance [km]","climb [m]","descent [m]","point of interest","sleeping arrangement",,,"deputy","Details"
,"04.04.2020","Sa","Kraków/Krakau","Kalwaria Zebrzydowska/Kalwarya","50.0597234,19.9512076","40 km",140,261,,,"Barnaba",,,"Route near Vistula river. On route Tyniec (https://de.wikipedia.org/wiki/Abtei_Tyniec). Kalwaria itself is a tiny town (4500 citizens), but should have a lot of sleeping, as it's relevant for pilgrims."
,"05.04.2020","So","Kalwaria Zebrzydowska","Oświęcim/Aushwitz","49.8671077,19.6736701",46,182,282,,,"Barnaba",,,"Through Wadowice, a touristy place itself. Most people visit because it's the birthplace of John Paul II (polish pope), but there's some nice architecture. Oświęcim is obviously a very popular destination."
,"06.04.2020","Mo","Oświęcim/Auschwitz","Bielsko Biała","50.0376087,19.2486681","30,4",170,81,,,"Barnaba",,,"Has beer museum and some MSK presence. Could be skipped if you're running late, unless there's arrangements with MSK."
,"Alternative","Alternative","Kalwaria Zebrzydowska","Bielsko Biała",,55,388,393,,,"Barnaba",,,"This is likely a hard day, but gets us to wroclaw on 16.04"
,"07.04.2020","Di","Bielsko Biała","Cieszyn","49.8180529,19.0560998",40,694,669,,,"Barnaba",,,"Getting hilly. Seems like 400m descent followed by 400m climb are both on a 250 stretch of the road, so unless the gradient is like 40° I hope it's a mapping error :D"
,"08.04.2020","Mi","Cieszyn","Ostrava (cz)","49.7492834,18.6357441,17",34,359,292,,,"Barnaba",,,"Actually hilly. Extra unsure of the route here."
,43930,"Do","Rest/slack",,,0,0,0,,,"Barnaba",,,"Since this is our only dip into Czechia it seems like a good place to rest. It's also a very hilly part of the journey and the distances aren't as short as requested :("
,"10.04.2020","Fr","Ostrava (cz)","Jastrzębie-Zdrój","49.8218807,18.2577052",37,233,219,,,"Barnaba",,,"This is Eurovelo-4 I think"
,"11.04.2020","Sa","Jastrzębie-Zdrój","Rybnik","49.9518853,18.5964533",23,135,122,,,"Barnaba",,,"Rybnik has MSK, huge coal business and 2nd worst air quality in Poland."
,"12.04.2020","So","Rybnik","Tychy","50.1012911,18.5436788",41,116,115,,,"Barnaba",,,"Mikolow has MSK."
,43934,"Mo","Tychy","Katowice","50.1186871,18.995402","22,7",114,107,,,"Barnaba",,,"Best to end up as west as possible, possibly even in Gliwice. There's MSK in Katowice and in Dąbrowa Górnicza nearby (same city really)"
,"14.04.2020","Di","Katowice","Toszek","50.2634643,19.0206941","50,1",,,,,"Barnaba",,,"There's a castle and not many other options!"
,"Alternative","Alternative","Katowice","Bycina",,"46,4",156,104,,,"Barnaba",,,"There's 3 lakes, a sailing camp nearby, surf camps, campings and bungalows nearby."
,"15.04.2020","Mi","Toszek","Opole","50.4555605,18.5195869",58,84,179,,,"Barnaba",,,"Busy road, but seems to have a good shoulder, should be tolerable. MSK in Opole."
,"16.04.2020","Do","Opole","Brzeg","50.6788299,17.8362461","41,7",,,,,"Barnaba",,,
"A","17.04.2020","Fr","Brzeg","Breslau","50.8597011,17.4651152",43,,,,,"Barnaba",,,"Is this late?"
,"18.04.2020","Sa","Breslau","Brzeg dolny","51.109553, 17.032107","38,6",65,63,,,"Barnaba",,,
,"19.04.2020","So","Brzeg Dolny","Legnica","51.2695262, 16.7133541","47,4",73,65,,,"Barnaba",,,
,"20.04.2020","Mo","Legnica","Bolesławiec","51.1964808, 16.0719656",50,198,131,,,,,,
,"21.04.2020","Di","Bolesławiec","Görlitz","51.2659038, 15.5307204","46,8",197,165,,,,,,
,"22.04.2020","Mi","Görlitz","Bautzen","51.1462176,14.9927027","42km","268m","266m",,,"Guido",,,
,"23.04.2020","Do","Bautzen (fff)","Dresden","51.156209, 14.990480","57km","258m","366m",,,"Guido",,,
,"24.04.2020","Fr","Dresden(pff, XR, fff)",,"51.181699, 14.423908",,,,"Sternfahrt ?",,"Guido",,,
,"25.04.2020","Sa","Dresden(XR, fff)","Jahnishausen","51.048034, 13.740379","48km","104m","105m",,,"Guido",,,
,"26.04.2020","So","Jahnishausen","Ruhland","51.272754, 13.283723","55km","128m","140m","alternative community",,"Guido",,,
,"27.04.2020","Mo","Ruland","Hoyerswerda","51.456256, 13.866675","36km","44m","27m",,,"Guido",,,
,"28.04.2020","Di","Hoyerswerda(XR)","Spremberg","51.434830, 14.243240","19km","210m","160m",,,"Guido",,,
,"29.04.2020","Mi","Spremberg",,,,,,"LEAG",,"Guido",,,
,"30.04.2020","Do","Spremberg","Cottbus","51.571238, 14.379171","24km","38m","65m",,,"Guido",,,
,"01.05.2020","Fr","Cottbus (fff)","Eisenhüttenstadt","51.760757, 14.331855","57,3km","200m","220m",,,"Guido",,,
,"02.05.2020","Sa","Eisenhüttenstadt","Fürstenwalde","52.145719, 14.629979","56km","260m","250m",,,"Guido",,,
,"03.05.2020","So","Fürstenwalde (fff)","Berlin Adlershof","52.358688, 14.064115","45,2km","160m","170m",,,"Guido",,,
,"04.05.2020","Mo","Berlin Adlershof","Berlin Reichstag","52.438870, 13.549770","18,1km","50m","40m","culture center Alte Schule",,"Guido",,,
,"04-09.05.2020","04-09.05.2020","Rebellien Wave Berlin",,,,,,,,,,,
1,"09.05.2020","Sa","Berlin (XR, fff)","Postdam","52.516181, 13.376935","31,5km","80m","77m",,,"Priska",,,
,"10.05.2020","So","Potsdam (XR, fff)","Bad Belzig","52.405455, 13.058247","52,4km","131m","81m","Freiland",,"Priska",,,
,"11.05.2020","Mo","Bad Belzig (fff)","Magdeburg","52.140562, 12.586587","77,5km","155m","194m","alternative community",,"Priska",,,
,"12.05.2020","Di","Magdeburg (XR, fff)","Calvörde","52.131458, 11.6401","42km","122m","112m",,,"Priska",,,
,"13.05.2020","Mi","Calvörde","7 Linden","52.390348, 11.295388","45km","49m","56m",,,"Priska",,,
,"14.05.2020","Do","7 Linden",,,,,,"alternative community",,"Priska",,,
,"15.05.2020","Fr","7 Linden","Wolfsburg","52.688895, 11.141501","49km","83m","71m",,,,,,
,"16.05.2020","Sa","Wolfsburg (fff)","Braunschweig","52.420288, 10.786177","27,6km","64m","57m",,,,,,
,"17.05.2020","So","Braunschweig (XR, fff)","HIldesheim","52.26442, 10.525154","44km","71m","52m",,,,,,
,"18.05.2020","Mo","Hildesheim (XR, fff)","Hannover","52.152774, 9.952023","32km","29m","62m",,,,,,
,"19.05.2020","Di","Hannover (XR, fff)","Steinhude","52.371201, 9.736379","32km","54m","67m",,,,,,
,"20.05.2020","Mi","Steinhude","Steyerberg","52.433690, 9.321870","36km","113m","123m",,,,,,
,"21.05.2020","Do","Steyerberg",,,,,,"alternative community",,,,,
,"22.05.2020","Fr","Steyerberg","Minden","52.567484, 9.026332","40km","67m","40m",,,,,,
,"23.05.2020","Sa","Minden (XR, fff)","Herford","52.289020, 8.918140","37km","98m","77m",,,,,,
,"24.05.2020","So","Herford (XR, fff)","Bielefeld","52.115790, 8.669395","16km","77m","35m",,,,,,
,"25.05.2020","Mo","Bielefeld (XR, fff)","Gütersloh","52.021089, 8.535049","19km","33m","78m","Flughafen",,,,,
,"26.05.2020","Di","Gütersloh (fff)","Münster","51.909167, 8.381332","58km","39m","56m",,,,,,
,"27.05.2020","Mi","Münster (XR, fff)","Haltern am See","51.9617, 7.628439","45km","45m","57m",,,,,,
,"28.05.2020","Do","Haltern am See",,,,,,"Datteln 4",,,,,
,"29.05.2020","Fr","Haltern am See","Dortmund","51.737736, 7.184341","41,6km","95m","51m",,,,,,
,"30.05.2020","Sa","Dortmund (XR, fff)","Bochum","51.511364, 7.465234","21km","119m","116m",,,,,,
,"31.05.2020","So","Bochum (XR, fff)","Essen","51.482533, 7.214935","16km","84m","97m",,,,,,
,"01.06.2020","Mo","Essen (XR, fff)","Duisburg","51.458363, 7.016444","20,5km","34m","81m",,,,,,
,"02.06.2020","Di","Duisburg (XR, fff)","Düsseldorf (am Rhein entlang)","51.435402, 6.761045","36,3km","43m","38m",,,,,,
,"03.06.2020","Mi","Düsseldorf (XR, fff)","Köln (am Rhein entlang)","51.225976, 6.771395","48,1km","84km","71km",,,,"Axel",,
,"04.06.2020","Do","Köln","Düren","50.938513, 6.959629","43km","173m","85m",,,,"Axel",,
,"05.06.2020","Fr","Düren","Hambacher Forst","50.803311, 6.482152","15km","12m","47m",,,,,,
,"06.06.2020","Sa","Hambacher Forst",,,,,,"Dörfer im Abriss",,,,,
,"07.06.2020","So","Hambacher Forst","Aachen","50.900000, 6.433333","33km","170m","93m",,,,,,
,"08.06.2020","Mo","Aachen (XR, fff)","Maastricht","50.776093, 6.083743","32km","120m","245m",,,,"Axel",,
,"09.06.2020","Di","Maastricht","Hasselt","50.851337, 5.691326","32km","69m","77m",,,,,,
,"10.06.2020","Mi","Hasselt","Kasteel Nieuvenhofen","50.930690, 5.332480","14km","47m","40m",,,,,,
,"11.06.2020","Do","Kasteel Nieuvenhofen",,,,,,"alternative community",,,,,
,"12.06.2020","Fr","Kasteel Nieuvenhofen","Plukrijp Farm","50.856653, 5.209326","57km","57m","112m",,,,,,
,"13.06.2020","Sa","Plukrijp Farm",,,,,,"alternative community",,,,,
,"14.06.2020","So","Plukrijp Farm","Leuven","51.027128, 4.723914","20km","22m","10m",,,,,,
,"15.06.2020","Mo","Leuven","Brüssel","50.878727, 4.701241","32,6km","126m","134m",,,,,,
,"16.06.2020","Di","Brüssel",,"50.846588, 4.351872",,,,"EU",,,,,
,"17.06.2020","Mi","Brüssel",,,,,,,,,,,
,"18.06.2020","Do","Brüssel",,,,,,,,,,,
,"19.06.2020","Fr","Brüssel",,,,,,,,,,,
,,,,"Paris","48.856483, 2.352413",,,,,,,,,
,,,,,,,,,,,,,,
,,,,"London","51.504827, -0.078626",,,,,,,,,
,,,,,,,,,,,,,,
,"07.11.2020","Sa",,"Glasgow","55.828724, -4.214387",,,,,,,,,
,,,,,,,,,,,,,,
,,,,,,,,,,,,,,
,,,,,,,,,,,,,,
,,,,,,,,,,,,,,
,,,,,,,,,,,,,,
,,,,"Raw Map",,,,,,,,,,
,,,,"a day rest",,,,,,,,,,
