<?xml version="1.0" encoding="UTF-8" standalone="no"?>
<!-- Created with Inkscape (http://www.inkscape.org/) -->

<svg
   xmlns:dc="http://purl.org/dc/elements/1.1/"
   xmlns:cc="http://creativecommons.org/ns#"
   xmlns:rdf="http://www.w3.org/1999/02/22-rdf-syntax-ns#"
   xmlns:svg="http://www.w3.org/2000/svg"
   xmlns="http://www.w3.org/2000/svg"
   xmlns:sodipodi="http://sodipodi.sourceforge.net/DTD/sodipodi-0.dtd"
   xmlns:inkscape="http://www.inkscape.org/namespaces/inkscape"
   width="24"
   height="24"
   viewBox="0 0 6.3499999 6.3500002"
   version="1.1"
   id="svg8"
   inkscape:version="0.92.4 (5da689c313, 2019-01-14)"
   sodipodi:docname="facebook.svg">
  <defs
     id="defs2" />
  <sodipodi:namedview
     id="base"
     pagecolor="#ffffff"
     bordercolor="#666666"
     borderopacity="1.0"
     inkscape:pageopacity="0.0"
     inkscape:pageshadow="2"
     inkscape:zoom="7.9195959"
     inkscape:cx="-5.3890071"
     inkscape:cy="3.4720391"
     inkscape:document-units="px"
     inkscape:current-layer="layer1"
     showgrid="false"
     units="px"
     inkscape:window-width="958"
     inkscape:window-height="991"
     inkscape:window-x="952"
     inkscape:window-y="0"
     inkscape:window-maximized="0" />
  <metadata
     id="metadata5">
    <rdf:RDF>
      <cc:Work
         rdf:about="">
        <dc:format>image/svg+xml</dc:format>
        <dc:type
           rdf:resource="http://purl.org/dc/dcmitype/StillImage" />
        <dc:title></dc:title>
      </cc:Work>
    </rdf:RDF>
  </metadata>
  <g
     inkscape:label="Layer 1"
     inkscape:groupmode="layer"
     id="layer1"
     transform="translate(0,-290.64999)">
    <path
       id="path1068"
       style="fill:none;stroke:#000000;stroke-width:0.23627292;stroke-linecap:round;stroke-linejoin:round;stroke-miterlimit:4;stroke-dasharray:none;stroke-opacity:1"
       d="m 1.2205575,291.42668 h 3.9088799 c 0.2455802,0 0.4432102,0.19742 0.4432102,0.44388 v 3.90886 c 0,0.24509 -0.1976199,0.44388 -0.4432102,0.44388 H 1.2205575 c -0.24558001,0 -0.44320505,-0.19743 -0.44320505,-0.44388 v -3.90886 c 0,-0.2451 0.19762004,-0.44388 0.44320505,-0.44388 z m 2.057375,4.78945 v -1.75921 h -0.641479 v -0.72896 h 0.631759 v -0.61231 c 0.01456,-0.42434 0.2321041,-0.64986 0.5054049,-0.81644 0.2830502,-0.17252 0.6371702,-0.13981 0.99138,-0.0778 l -0.005,0.6755 h -0.36933 c -0.2213401,0.0255 -0.3597701,0.14121 -0.34504,0.3742 v 0.4471 h 0.6900699 l -0.0972,0.72895 h -0.612209 v 1.74949"
       inkscape:connector-curvature="0" />
  </g>
</svg>
