<?xml version="1.0" encoding="UTF-8" standalone="no"?>
<!-- Created with Inkscape (http://www.inkscape.org/) -->

<svg
   xmlns:dc="http://purl.org/dc/elements/1.1/"
   xmlns:cc="http://creativecommons.org/ns#"
   xmlns:rdf="http://www.w3.org/1999/02/22-rdf-syntax-ns#"
   xmlns:svg="http://www.w3.org/2000/svg"
   xmlns="http://www.w3.org/2000/svg"
   xmlns:sodipodi="http://sodipodi.sourceforge.net/DTD/sodipodi-0.dtd"
   xmlns:inkscape="http://www.inkscape.org/namespaces/inkscape"
   width="24"
   height="24"
   viewBox="0 0 6.3499999 6.3500002"
   version="1.1"
   id="svg8"
   inkscape:version="0.92.4 (5da689c313, 2019-01-14)"
   sodipodi:docname="flag.svg">
  <defs
     id="defs2" />
  <sodipodi:namedview
     id="base"
     pagecolor="#ffffff"
     bordercolor="#666666"
     borderopacity="1.0"
     inkscape:pageopacity="0.0"
     inkscape:pageshadow="2"
     inkscape:zoom="7.9195959"
     inkscape:cx="11.069883"
     inkscape:cy="6.4152016"
     inkscape:document-units="px"
     inkscape:current-layer="layer1"
     showgrid="false"
     units="px"
     inkscape:window-width="960"
     inkscape:window-height="1001"
     inkscape:window-x="951"
     inkscape:window-y="-9"
     inkscape:window-maximized="0" />
  <metadata
     id="metadata5">
    <rdf:RDF>
      <cc:Work
         rdf:about="">
        <dc:format>image/svg+xml</dc:format>
        <dc:type
           rdf:resource="http://purl.org/dc/dcmitype/StillImage" />
        <dc:title></dc:title>
      </cc:Work>
    </rdf:RDF>
  </metadata>
  <g
     inkscape:label="Layer 1"
     inkscape:groupmode="layer"
     id="layer1"
     transform="translate(0,-290.64999)">
    <path
       id="rect1399"
       style="opacity:0.95999995;fill:none;fill-opacity:1;fill-rule:nonzero;stroke:#000000;stroke-width:0.23633012;stroke-linecap:round;stroke-linejoin:round;stroke-miterlimit:4;stroke-dasharray:none;stroke-dashoffset:0;stroke-opacity:1;paint-order:normal"
       d="m 1.5843156,291.36453 c 0.1266112,0 0.2295155,0.0949 0.2295155,0.23013 v 4.46067 c 0,0.12238 -0.1020991,0.23012 -0.2295155,0.23012 -0.1266121,0 -0.2295155,-0.0949 -0.2295155,-0.23012 v -4.46067 c 0,-0.12238 0.1020983,-0.23013 0.2295155,-0.23013 z m 2.4649524,3.16682 c -0.1007559,-0.0137 -0.330212,-0.10915 -0.418844,-0.15919 -0.04903,-0.0289 -0.158736,-0.12262 -0.249248,-0.20271 -0.4566656,-0.41107 -0.9961327,-0.44101 -1.4515402,-0.0817 l -0.1156997,0.0951 v -1.23324 -1.23326 l 0.1156997,-0.0949 c 0.3431374,-0.27067 0.7679919,-0.32279 1.1442342,-0.13756 0.08033,0.0386 0.218081,0.13756 0.307485,0.21813 0.197622,0.17945 0.312792,0.2533 0.473845,0.30879 0.3514861,0.12237 0.6932579,0.0546 1.017499,-0.18685 l 0.122501,-0.0949 v 1.23324 1.23323 l -0.122501,0.0949 c -0.2597179,0.196 -0.5556409,0.28177 -0.8231169,0.23981 z"
       inkscape:connector-curvature="0" />
  </g>
</svg>
