<?xml version="1.0" encoding="UTF-8" standalone="no"?>
<!-- Created with Inkscape (http://www.inkscape.org/) -->

<svg
   xmlns:dc="http://purl.org/dc/elements/1.1/"
   xmlns:cc="http://creativecommons.org/ns#"
   xmlns:rdf="http://www.w3.org/1999/02/22-rdf-syntax-ns#"
   xmlns:svg="http://www.w3.org/2000/svg"
   xmlns="http://www.w3.org/2000/svg"
   xmlns:sodipodi="http://sodipodi.sourceforge.net/DTD/sodipodi-0.dtd"
   xmlns:inkscape="http://www.inkscape.org/namespaces/inkscape"
   width="24"
   height="24"
   viewBox="0 0 6.3499999 6.3500002"
   version="1.1"
   id="svg8"
   inkscape:version="0.92.4 (5da689c313, 2019-01-14)"
   sodipodi:docname="my_tours.svg">
  <defs
     id="defs2" />
  <sodipodi:namedview
     id="base"
     pagecolor="#ffffff"
     bordercolor="#666666"
     borderopacity="1.0"
     inkscape:pageopacity="0.0"
     inkscape:pageshadow="2"
     inkscape:zoom="7.9195959"
     inkscape:cx="15.887331"
     inkscape:cy="3.4720391"
     inkscape:document-units="px"
     inkscape:current-layer="layer1"
     showgrid="false"
     units="px"
     inkscape:window-width="960"
     inkscape:window-height="1001"
     inkscape:window-x="951"
     inkscape:window-y="-9"
     inkscape:window-maximized="0" />
  <metadata
     id="metadata5">
    <rdf:RDF>
      <cc:Work
         rdf:about="">
        <dc:format>image/svg+xml</dc:format>
        <dc:type
           rdf:resource="http://purl.org/dc/dcmitype/StillImage" />
        <dc:title></dc:title>
      </cc:Work>
    </rdf:RDF>
  </metadata>
  <g
     inkscape:label="Layer 1"
     inkscape:groupmode="layer"
     id="layer1"
     transform="translate(0,-290.64999)">
    <path
       id="path1014"
       style="fill:none;stroke:#000000;stroke-width:0.23633012;stroke-linecap:round;stroke-linejoin:round;stroke-miterlimit:4;stroke-dasharray:none;stroke-opacity:1"
       d="m 3.8316584,293.74006 h 0.7522064 v -0.3469 l 0.9438625,0.94331 -0.9102421,0.9107 v -0.30206 l -0.6441268,0.004 M 1.415361,293.75216 H 0.82227769 v 1.20061 H 1.2374511 m 2.0089603,-1.90609 c 0,0.3551 -0.288186,0.64382 -0.6433112,0.64382 -0.3552499,0 -0.6433083,-0.28852 -0.6433083,-0.64382 0,-0.3551 0.2878952,-0.64386 0.6433083,-0.64386 0.3552528,0 0.6433112,0.28851 0.6433112,0.64386 z m -0.9928656,0.74051 c -0.3544796,0 -0.639633,0.28561 -0.639633,0.63977 v 0.5104 h 1.9741919 v -0.5104 c 0,-0.35416 -0.2852904,-0.63977 -0.6396355,-0.63977 z"
       inkscape:connector-curvature="0" />
  </g>
</svg>
