<?xml version="1.0" encoding="UTF-8" standalone="no"?>
<!-- Created with Inkscape (http://www.inkscape.org/) -->

<svg
   xmlns:dc="http://purl.org/dc/elements/1.1/"
   xmlns:cc="http://creativecommons.org/ns#"
   xmlns:rdf="http://www.w3.org/1999/02/22-rdf-syntax-ns#"
   xmlns:svg="http://www.w3.org/2000/svg"
   xmlns="http://www.w3.org/2000/svg"
   xmlns:sodipodi="http://sodipodi.sourceforge.net/DTD/sodipodi-0.dtd"
   xmlns:inkscape="http://www.inkscape.org/namespaces/inkscape"
   width="24"
   height="24"
   viewBox="0 0 6.3499999 6.3500002"
   version="1.1"
   id="svg8"
   inkscape:version="0.92.4 (5da689c313, 2019-01-14)"
   sodipodi:docname="twitter.svg">
  <defs
     id="defs2" />
  <sodipodi:namedview
     id="base"
     pagecolor="#ffffff"
     bordercolor="#666666"
     borderopacity="1.0"
     inkscape:pageopacity="0.0"
     inkscape:pageshadow="2"
     inkscape:zoom="7.9195959"
     inkscape:cx="-5.3890071"
     inkscape:cy="3.4720391"
     inkscape:document-units="px"
     inkscape:current-layer="layer1"
     showgrid="false"
     units="px"
     inkscape:window-width="958"
     inkscape:window-height="991"
     inkscape:window-x="952"
     inkscape:window-y="0"
     inkscape:window-maximized="0" />
  <metadata
     id="metadata5">
    <rdf:RDF>
      <cc:Work
         rdf:about="">
        <dc:format>image/svg+xml</dc:format>
        <dc:type
           rdf:resource="http://purl.org/dc/dcmitype/StillImage" />
        <dc:title></dc:title>
      </cc:Work>
    </rdf:RDF>
  </metadata>
  <g
     inkscape:label="Layer 1"
     inkscape:groupmode="layer"
     id="layer1"
     transform="translate(0,-290.64999)">
    <path
       id="path1086"
       style="fill:none;stroke:#000000;stroke-width:0.23627292;stroke-linecap:round;stroke-linejoin:round;stroke-miterlimit:4;stroke-dasharray:none;stroke-opacity:1"
       d="m 1.2205585,291.42668 h 3.9088821 c 0.2455799,0 0.4432059,0.19742 0.4432059,0.44388 v 3.90886 c 0,0.24509 -0.197621,0.44388 -0.4432059,0.44388 H 1.2205585 c -0.24558,0 -0.44320499,-0.19743 -0.44320499,-0.44388 v -3.90886 c 0,-0.2451 0.19761999,-0.44388 0.44320499,-0.44388 z m 1.0795101,3.78111 c -0.243723,-0.0257 -0.496116,-0.10215 -0.7227301,-0.21901 l -0.134206,-0.0692 0.187888,-0.008 c 0.2378391,-0.0105 0.4142151,-0.0536 0.6012391,-0.14808 0.07964,-0.0402 0.224134,-0.1361 0.224134,-0.1487 0,-0.005 -0.01963,-0.0107 -0.04362,-0.0109 -0.192917,-0.001 -0.449769,-0.10964 -0.548729,-0.29721 -0.06542,-0.12399 -0.0666,-0.17949 0.05229,-0.17483 0.0724,0.0121 0.141112,-0.0117 0.211248,-0.0186 -0.212429,-0.0496 -0.360725,-0.19197 -0.4745601,-0.35292 -0.05659,-0.08 -0.0761,-0.18814 -0.08684,-0.28088 -0.0063,-0.11295 0.1876481,3.2e-4 0.2509941,0.0174 l 0.06538,0.009 c -0.202496,-0.15463 -0.2889391,-0.32895 -0.3116041,-0.53735 -0.0096,-0.088 0.01368,-0.22132 0.05465,-0.33085 l 0.02837,-0.0758 0.1361481,0.13582 c 0.341128,0.34029 0.765073,0.54533 1.2180829,0.58913 l 0.104537,0.0105 -0.008,-0.10372 c -0.02074,-0.26899 0.113002,-0.52581 0.346598,-0.66559 0.08234,-0.0493 0.2543611,-0.0976 0.3459109,-0.0973 0.1581902,6e-4 0.3539821,0.0742 0.4619922,0.17353 l 0.05591,0.0514 0.09748,-0.0247 c 0.1147688,-0.0369 0.2344279,-0.0852 0.3359068,-0.1271 -0.02778,0.10311 -0.2795659,0.406 -0.2830151,0.40936 0.05765,0.0103 0.3570071,-0.031 0.4340411,-0.0448 0.05502,0.0514 -0.1866279,0.179 -0.2813159,0.27311 l -0.08187,0.0657 -0.0091,0.17006 c -0.03317,0.62046 -0.354633,1.10144 -0.8356381,1.46407 -0.129101,0.0973 -0.384548,0.22928 -0.5408609,0.27938 -0.266732,0.0855 -0.572691,0.11703 -0.8507099,0.0878 z"
       inkscape:connector-curvature="0" />
  </g>
</svg>
